{
  "/js/app.js": "/js/app.js",
  "/css/app.css": "/css/app.css",
  "/js/welcome.js": "/js/welcome.js",
  "/js/vue-front.js": "/js/vue-front.js",
  "/js/inputmask.js": "/js/inputmask.js",
  "/js/vue-orders.js": "/js/vue-orders.js",
  "/js/vue/orders.js": "/js/vue/orders.js",
  "/js/vue/items.js": "/js/vue/items.js"
}